6 2735 2736 7813 9921 3733 9312
14 6689 1227 7117 428 665 4065 2288 446 12 9753 1575 2880 2358 5449
20 3090 1090 482 9251 6397 6432 4218 4148 8199 2120 5490 3265 8090 3858 859 6458 6623 390 8423 5592
30 1209 9503 1276 5888 8034 1733 8806 2045 377 1539 65 4654 991 9767 1316 7960 7447 2367 9310 2069 3587 480 8522 6941 5613 1014 5760 2609 4592 4124
24 6466 1593 7768 802 9314 572 1181 9952 2095 7234 2040 5632 9268 692 8549 2204 3494 4039 2459 8651 625 2562 7144 835
27 5018 9852 5540 3554 3414 7203 8938 5100 1309 8533 3394 6203 6769 8153 8763 9403 4373 3668 3834 5843 2002 6501 7214 8080 4911 4490 7953
23 9313 5112 9813 5621 2600 5674 3290 105 6161 1393 3561 4086 9141 6375 6459 1668 4621 1446 1906 5993 5742 6152 2853
12 2519 1651 1010 3375 9018 5267 6570 8101 8485 1376 5821 4978
14 549 2520 933 3615 3038 348 643 6593 7924 8428 929 2715 1850 1000
28 4525 1406 9559 3083 8085 4318 6336 2527 2415 6041 4453 3610 5262 4688 1988 9224 2414 8656 6509 6564 4142 9008 4122 8561 8441 7979 2449 8879
21 5934 5332 2330 1203 3428 7286 5981 7879 7155 7592 6733 4368 2895 9883 8387 5845 9007 1540 1285 5505 176
15 4679 5352 8747 8951 3205 3624 7267 524 1682 6363 3977 6860 4936 7910 5067
15 88 7435 8548 3462 3191 3701 9262 4636 9612 7120 6591 5883 8762 3229 7204
21 7109 8254 9492 8831 2981 4532 3974 833 8004 5537 1310 2837 9079 1690 6234 7514 9149 1807 6427 6230 4325
32 2465 7116 2742 9297 1755 8529 7642 8694 7048 1330 865 7624 3672 1394 3216 1538 968 3674 9591 5795 9351 5 4466 323 4563 8735 6872 3063 1892 307 3128 2813
16 4309 9452 3381 7962 5729 6869 7121 3725 4215 2149 5832 2851 2491 7524 2408 3014
19 5970 2079 8462 7086 9524 9832 2434 9604 7761 8214 5709 2359 7904 9384 8958 2242 2646 7408 3705
31 5324 4428 8573 95 4602 3057 7636 9948 821 6367 1896 1248 6571 618 5005 2 7237 6025 2063 8297 5164 2752 9599 8275 7297 4945 3734 4951 6417 1003 9545
12 4839 3596 6547 7685 330 6024 8412 1415 3895 3584 280 9287
21 719 208 4101 4656 8617 767 2760 4768 5559 6326 4106 6974 264 8513 351 4516 6217 926 1174 9131 6569
28 606 1512 9744 6293 39 8413 2065 4105 2370 6619 3285 2955 8906 3256 5911 8318 8405 36 8015 3171 5493 6015 3040 8211 4197 9004 8054 8957
13 423 7114 9627 3105 1201 7232 5375 4256 74 8510 9379 9607 1555
10 6031 3490 9353 6984 4615 5701 6832 8245 129 5071
15 187 5393 5049 3108 1460 5433 4326 8243 5899 2292 6909 9667 9106 5692 492
23 1066 5402 6239 1986 5351 2059 8176 826 514 1257 352 1104 8793 4144 2443 4333 4745 1763 8946 4363 3019 2070 3887
18 5335 658 6875 1200 7323 6729 2771 8378 4724 3909 9623 2191 4647 1027 644 7611 1377 3617
30 8175 1773 4164 6922 6141 6580 7746 7169 9027 459 4046 1045 8746 8534 7501 1125 4626 5852 4710 1957 2237 9501 9808 9174 944 4267 6445 8941 7390 6288
20 1560 499 5250 1762 7999 4880 3262 5763 8064 5492 5772 6781 45 3344 7481 5412 7436 5735 3954 7008
30 4758 6558 8040 6475 7628 8671 2665 5193 636 938 490 2694 5929 7351 5640 5421 7326 2871 3374 569 9437 5035 8443 6632 4288 8943 3965 1701 1343 2163
16 3817 7687 8979 7574 4250 6825 7933 3793 7613 101 5936 6057 3688 4778 9178 1375
29 3580 3459 5636 6645 8035 2304 3623 1660 6757 1069 9038 6211 2945 8650 8960 8246 1253 8776 3320 6371 6525 5229 3681 755 9220 1242 9703 9176 9536
13 6252 9109 1634 7271 8895 2959 8576 8476 1945 8048 1654 3023 9693
22 1273 3430 326 950 2663 85 159 9900 8542 7503 2867 2607 3039 8553 1961 1966 4446 5280 5499 3369 7281 9417
24 7499 6656 8892 2717 8780 2393 2898 7679 9366 9821 9233 9863 6315 7371 7545 2194 1793 1021 6323 3591 8674 9606 9792 8171
25 1867 8021 6450 7874 7193 1079 5866 2240 230 4353 8334 581 5217 7521 6938 9415 8084 1661 4284 9525 7053 8124 143 6032 7968
30 7965 1637 513 4875 9871 7922 9127 64 6737 7309 3466 7712 857 194 8492 2634 9162 4100 9788 9122 4765 236 3581 2262 314 3571 7772 5854 7251 5108
15 6822 9246 364 7153 6174 9399 340 5791 2034 8971 7184 3020 8319 4445 757
16 2432 1492 9255 8133 8059 5069 1349 1169 5809 8239 1787 8788 6384 2671 7509 807
32 7070 8209 4794 7666 1873 9118 4021 7171 2275 6268 1944 3845 1337 4443 366 7298 1827 1715 9605 7273 4974 4254 6990 7185 9260 7681 1467 6028 5551 6151 6405 9532
20 1178 1977 3915 4003 649 3859 7762 3597 6181 5317 1519 500 7855 9490 5271 2484 9119 7240 9590 9515
22 4742 6662 6756 1994 9512 6101 5043 1109 3247 5221 2104 8017 3436 3948 6122 4198 2700 7076 7848 4461 7942 4818
16 3055 2963 5771 5347 2140 657 5553 4361 4678 7964 7888 5159 1976 1823 4799 3035
20 8890 5384 2189 8475 6495 2047 9279 149 1116 3273 9434 9690 8168 8920 5435 8463 6300 9404 1718 4841
32 6002 3249 3891 6473 1491 6402 7191 2797 7103 509 4224 2037 6926 3121 7018 6308 2995 6314 4362 8304 1092 570 6328 429 3800 8442 4864 9942 4418 329 9374 58
22 8773 7940 6352 1967 9043 1501 1448 614 9896 4964 9683 5385 8752 958 5142 1385 3301 1295 2890 7460 2914 4277
27 8292 2791 825 4973 5650 7811 2115 1504 2315 1590 9859 6114 3508 7930 3350 4075 1404 8639 4780 6770 4702 9745 8482 9714 2457 2253 1573
27 672 6745 5756 5678 6380 6270 9458 3609 9687 9894 3438 2398 7790 5072 7084 4178 2616 5423 5894 1607 7485 6876 6545 4332 7834 7375 6997
18 7475 7849 4170 6420 1601 4024 907 2386 4213 118 8987 1461 4394 1679 5104 77 6970 7433
30 8477 7230 5425 3199 2352 6705 9242 7118 7066 4638 897 9328 2402 5658 684 1525 814 2380 3223 1571 1351 5930 5319 5177 4269 4242 8327 8461 1923 3883
29 5235 8158 4421 2056 611 2776 1250 3062 8164 2121 5481 3963 7647 4988 8383 5878 9435 1358 3801 1270 2522 167 9217 1068 8982 2289 4350 796 464
13 6277 9406 1674 6338 640 3789 9678 8190 2173 1067 5463 9533 8726
14 2720 5991 4773 3506 3237 3099 673 5893 5531 9259 7878 7311 1507 2090
33 9409 9935 1177 8419 5539 8615 494 1458 4989 1790 8883 7164 678 9368 6339 7807 9593 6030 8280 3777 8136 4053 7835 7736 5264 8765 7617 9887 679 3627 7002 3804 398
27 2920 6189 7224 1904 2916 102 6989 6716 584 852 5364 3661 3939 7551 3700 7168 3567 1420 3726 4999 6766 5867 8142 6209 762 447 1808
34 4094 1883 8774 7102 8681 4372 7477 629 9566 121 8401 9208 8072 3328 9884 2089 2765 2850 7976 3873 2688 6027 4478 4201 7919 2811 3868 1847 4308 8265 8255 5253 1230 9430
16 3629 2006 1995 9575 8768 529 5660 1110 9516 9849 6921 1810 4718 5379 6542 2939
27 677 1724 4084 8823 3116 9199 3532 4819 2977 538 3748 2268 686 5614 7820 1450 2295 6126 4719 2317 4108 1506 7589 7307 6991 2516 2865
31 3607 8699 3947 951 3047 5228 595 9836 5451 8416 7407 3127 4499 2633 6682 6953 5558 3756 6763 4259 9688 8846 4015 3056 1617 5065 2196 3041 980 2773 3120
17 1097 3651 697 975 7444 9708 1096 5618 4448 5940 5118 4735 9443 858 1633 9885 4861
17 5497 8965 9392 5097 9221 9964 9571 5793 359 8356 2469 8202 3180 9494 165 4311 2597
30 9752 2512 3510 9680 7710 633 1256 3165 6426 8843 320 3959 7646 3013 806 4847 2832 2584 5258 7639 1028 2050 5044 5560 9775 7201 962 9766 2224 4803
30 6670 7846 6307 3875 6771 100 8742 3098 9133 6882 2630 6696 8705 5122 5958 3832 386 238 8881 7703 5467 1825 3226 792 2550 3405 4918 7289 2441 6613
30 1757 271 5214 1843 3583 7785 1441 7558 4858 7903 698 8031 8299 3841 213 6490 7982 7299 2801 5355 764 7571 8756 3922 7717 5242 9818 3576 7410 7235
30 5440 109 4184 5285 6000 5601 8785 2640 2072 2842 9238 1012 6898 3222 4237 1999 4512 8381 8845 2010 220 2144 1764 6631 6534 3835 3076 430 4145 3812
9 9514 1605 5480 362 2488 9253 1216 9099 7105
14 2571 7156 6669 1997 2333 5422 9276 4400 7274 1947 2241 3341 7713 913
29 563 3338 5830 7361 1348 8869 6374 3854 3967 3772 8807 2596 7189 6131 2719 5552 4960 9959 2545 3385 9588 9502 4556 8386 7696 2976 1127 7731 7487
28 6381 2928 3786 4107 4493 6251 967 3790 7197 1255 3645 624 7259 5715 2500 5313 4831 5165 2101 1703 7431 5354 3143 5416 5494 7702 3480 2203
23 9003 5808 7428 601 4028 4544 9134 9561 4355 4653 4314 5708 8550 239 1956 5342 4641 5294 8163 4186 1972 4348 1950
18 3549 2641 6200 8868 1667 66 7278 2406 847 8659 8926 9420 8027 7506 2583 2098 2697 6348
30 4601 7455 1588 435 5779 7209 8151 9731 3981 9844 9303 3450 8105 7587 9816 733 8539 4280 2461 2493 600 4548 5207 3698 7218 4069 5230 6919 3781 8850
21 7657 6924 502 5686 381 6814 896 9858 3373 7453 8344 654 1244 4732 4982 9336 7831 8349 4310 9811 8582
9 2015 2132 210 8348 6582 8901 4857 2346 5891
21 8708 8711 867 5045 8494 8800 8097 6581 7510 7728 9352 7583 5448 8052 8317 8986 5871 3886 9154 4844 9601
27 9847 4511 6202 35 1465 5690 2652 3930 6333 2272 1428 5004 3447 946 3387 9616 4513 9386 4991 7181 6599 3109 6035 7391 4931 2019 7625
7 2883 4414 7355 6904 5862 1163 5513
29 9913 5954 4686 9872 8298 2954 3469 9299 8755 2213 5092 134 6556 4578 9958 8927 2058 2849 2066 1373 2391 7469 2629 8311 6978 7126 2750 5631 1038
30 5445 7889 2198 935 4953 2732 5713 7555 2192 4892 8182 3077 800 1741 5391 7016 9009 9957 4524 7839 4051 9518 1070 5075 8295 4010 966 5773 7725 4140
8 9976 7320 9320 498 4396 5371 8108 8596
15 4078 6752 9078 4733 8128 2033 2126 4006 3297 613 5889 9067 1011 5474 4298
37 8310 3333 6206 4225 4613 5291 7019 3261 1455 3754 1532 2179 8186 4685 2390 8212 7615 8775 6945 6777 9945 3888 3412 735 9315 5327 5673 2555 1445 4216 56 2610 5395 2286 2280 9025 2848
26 4008 2589 9282 6029 4115 8445 7916 3418 6946 4113 8928 7726 4539 5519 3340 1513 7098 453 8584 8498 8417 1321 5000 4324 7476 1751
17 6263 3358 1325 40 5805 6103 5784 5703 9772 5096 6291 5515 3838 5666 6715 7489 2839
20 1305 6485 4233 1804 7690 6119 8167 5803 7837 934 7984 9789 4085 2309 3474 9418 8162 2073 4057 6665
26 6815 9405 6004 419 483 1845 9475 3326 7693 2948 8312 4832 8624 6605 8544 6047 8748 1870 1770 8886 6086 8340 6614 7310 8613 1088
25 3307 699 9469 3739 881 8118 6013 1048 716 7822 1389 6683 518 6036 2308 6382 532 8975 3206 6624 7283 4671 2326 6890 5443
17 303 5034 9030 4016 6739 6647 1725 1912 7122 7359 7995 9787 7719 1898 4479 4341 590
18 4071 4706 368 5382 28 6224 687 2863 5274 1927 7844 3283 4783 2371 9555 7577 3158 2038
6 1335 9864 8088 8397 7304 142
13 2917 7210 2605 7312 9450 3054 3760 3911 5918 6911 1614 5587 1868
26 8731 902 248 5711 313 6893 1152 4270 5915 8801 3432 8511 9758 8400 9026 5550 3455 1187 1632 160 988 75 5121 7600 4220 7676
19 8878 8274 2537 1272 2937 6089 3451 6237 7516 7231 3498 7440 9302 9023 2631 3351 8129 9914 8468
32 1138 4959 2511 3512 3398 8403 5082 353 2314 799 4114 2281 9022 2153 6785 6774 6617 5966 8697 2462 6949 9807 162 5609 7752 1059 5752 9129 3923 7818 7459 1705
21 9619 6493 3291 412 4806 5249 1714 1597 9774 3161 7003 8248 1577 3183 9051 3287 5461 3080 4364 3043 4040
16 7013 6793 2109 3352 8909 6306 8141 727 8570 7854 6717 418 9726 4239 9309 4795
20 5300 3579 3601 1655 4141 5036 7041 1081 4699 5033 7770 7680 1123 7368 5600 6823 5943 2405 5761 7760
13 1315 2942 8902 7737 32 5584 921 4441 1338 8444 6386 8814 1339
28 9707 7198 3129 5712 8682 415 5576 6081 5064 4734 4711 4851 3574 8524 6940 7743 72 6572 5590 571 7828 5330 5669 6322 7946 1805 207 8091
9 7429 7325 1670 2269 6520 7985 234 4305 1662
29 7861 9649 3821 7572 2639 4139 8876 7941 8257 6865 4784 6987 9001 736 6873 112 8491 9175 8526 8828 2201 1712 2970 4707 7744 1195 3500 2032 6479
27 4059 6502 9556 839 7442 6886 6871 709 3203 7143 4981 3592 9998 1624 3489 1094 8732 205 1036 2553 6388 9931 6343 5820 9567 2677 6
19 5192 6123 5890 4980 9795 922 4749 7425 8263 8075 4594 7614 4317 229 1093 2540 729 6295 9198
9 5299 3826 3188 3632 5303 6048 5366 6544 3224
19 6783 3005 3461 7446 4520 5597 6079 4000 5084 3282 7841 8230 2133 7863 8216 5549 9719 2579 9334
15 7463 7088 9869 1503 2754 4070 7139 1606 331 1788 4272 6335 8888 5563 2134
26 3167 9996 4717 7149 515 8992 6006 7418 1291 1167 2137 2560 4486 7358 5365 4375 466 637 2643 5148 7303 5596 6045 6750 181 7112
14 769 7716 3536 5687 3504 171 9308 8602 5524 7409 3140 6917 2376 4319
26 3696 984 8915 4274 1239 6642 2648 7394 3201 8603 78 5278 42 5530 8887 4674 237 4627 9086 5277 5346 8046 3252 9461 8152 3417
28 9305 3257 4761 3795 7579 5344 6491 5356 4206 8103 8743 8767 9322 8749 4902 7397 6704 9211 6691 6219 5612 8999 204 6496 2725 750 1642 3656
28 9563 328 8448 4020 4481 141 3770 4195 9639 9229 3625 243 5157 153 3763 8049 3448 5203 6092 6522 4928 2974 4134 6943 6933 7881 6470 5398
11 2247 8566 5205 1399 6349 3902 1708 9878 5788 9850 3153
27 4377 2313 6304 7430 830 2180 6967 4744 5021 4209 9300 3443 1307 1154 3404 2712 7330 7945 3018 8269 2331 1149 8251 6895 7789 998 2243
24 6412 3170 1970 2261 8575 6537 9364 1412 1299 7894 2043 7823 5801 3924 173 9725 3568 6928 8399 8863 6395 9973 8066 923
27 713 6735 5090 6474 8368 8259 9742 5279 9478 9968 5041 2444 8917 8143 6743 4810 5518 5965 6653 4757 5146 9210 898 4273 983 1758 8384
27 2135 5213 7792 8382 4405 9068 6618 5782 5725 6839 5073 7650 4135 9706 4518 5823 5102 8565 8172 3348 5740 3095 6573 1619 3863 6311 6073
11 2949 4387 4833 533 3319 6261 4930 4384 5310 6344 1855
8 700 9473 7804 5475 1292 547 3234 6610
23 3442 2899 2681 6012 5054 992 4605 1738 1521 5465 1934 4628 6447 5730 877 7099 556 8335 3481 5281 6795 1306 3950
32 6831 7512 4815 5566 9464 169 2613 9263 9641 7564 4159 3761 6157 7918 5259 7538 6604 3511 3391 8473 3659 5288 4576 6022 8333 9343 1219 9147 5895 472 635 7467
27 1543 726 5307 9751 1346 3439 7466 2229 2557 6692 3269 305 8362 2757 3913 9892 5115 6500 5331 6074 2878 2858 9650 2487 2926 6533 8897
24 6901 9137 1142 9947 2635 9065 4123 4696 7515 7724 2921 3694 7659 2950 6552 8689 9049 6725 5037 8467 3520 9120 2940 6212
29 6403 1949 3565 1693 146 5861 4397 1297 5256 463 8620 9784 3846 4316 7454 723 6184 3897 1172 525 5822 1080 9660 9189 9936 3033 3928 4160 2300
23 3156 6404 4194 7196 7092 4415 6850 6391 3145 9848 4473 9730 8315 5401 5257 7038 7932 2692 8866 7069 7533 1001 749
13 2384 3767 2693 1435 4961 9911 8487 9956 3415 3525 5296 1680 1293
14 8518 7028 9274 4011 9798 4755 7396 6231 8221 6761 8716 3679 6191 5817
28 5769 5027 2523 9628 6425 2181 7245 1631 6082 3648 8296 7488 4111 5094 5689 3856 4903 7137 2360 8010 7815 33 3604 3766 9184 8677 6518 6439
7 9393 9090 4665 3544 2570 5091 9569
20 1515 8104 5554 9252 8821 7167 9218 7221 6204 5741 8633 745 192 6193 1663 8365 9465 4506 7751 3899
12 1992 1625 4507 9954 5062 4697 3383 7059 7992 1549 9637 8013
28 9325 1372 4635 9696 3566 3993 9564 5405 2809 7370 9324 4340 434 6423 2084 7192 4874 4176 7908 2027 6256 1333 452 9746 8589 1354 3310 6603
8 7928 6329 9087 1186 1797 7284 589 5979
18 8670 7194 5568 544 8074 6543 1117 6791 5834 652 9059 9373 1076 2294 9940 4399 8078 1858
15 6807 6135 608 4153 4411 2533 9398 2795 1659 420 3125 9467 7338 4116 2746
6 4435 5856 8346 2573 6521 8301
19 8640 5572 6765 9925 3330 5019 7886 5420 5987 2175 8790 3529 6539 2961 3048 2993 3458 8942 2223
23 3869 7020 5562 2769 3305 4211 1882 7817 2789 3894 2093 6707 2340 3912 8218 2678 3303 5781 7157 4640 9938 1813 1020
22 3253 400 9385 8653 9712 6399 2270 7014 4406 5042 8904 4675 512 9431 5117 184 3956 3577 7875 3268 7786 6018
18 8329 5113 8370 5777 6764 8173 9833 872 788 4631 6700 2779 73 2819 3971 7766 1173 3097
12 474 5487 5017 6818 8155 8306 6441 1374 8106 4129 2208 1336
3 5868 9459 7376
25 1105 1111 2997 8421 8882 8272 2107 6331 2052 9333 9987 4698 9337 1854 3516 8914 681 8100 3162 9427 1360 1658 9123 5361 7700
30 5693 3329 150 6186 5783 9209 2385 5400 9652 1271 5534 880 2923 517 4915 6478 7340 8569 4169 6852 3034 6796 603 7378 4540 9922 3727 3934 8137 224
31 84 789 7637 3921 6523 1587 9381 3155 542 2467 5039 3308 5176 2854 689 4044 1317 2911 5349 4684 866 8900 5469 3486 4650 6487 4927 2679 2864 6782 9673
24 9140 9128 7927 8554 8796 7840 871 382 5941 7749 6726 6920 8099 2834 4468 4191 5321 2344 747 9057 8082 3111 5790 8222
29 6706 7329 730 6021 152 2105 9394 369 2612 3075 7222 2383 2452 6730 4440 3356 2504 9870 6754 6347 1832 1165 1821 9986 5839 8043 9560 9765 2148
24 7956 6110 2401 8285 1685 1474 4371 2667 2525 9882 4068 7205 5804 4852 8127 841 94 6282 1432 6760 6640 1049 8358 1284
20 5717 2143 720 5626 9819 552 5838 6359 5824 1364 2565 83 2151 7560 9780 6583 8083 5629 5275 2321
27 2695 1100 9286 3585 506 5751 8094 8996 286 6389 8872 5976 2062 2431 3389 9148 5414 7780 2701 3943 9891 2136 8278 7042 9776 8690 8884
20 768 6786 1527 497 1913 5241 1511 3867 458 4689 6463 4700 1095 1419 8818 7335 3126 9668 1226 5476
10 4090 5491 1955 306 2767 3492 4606 994 7649 60
26 9084 1530 5089 2425 846 4035 1676 4163 8644 6218 9659 5353 2341 1819 1229 6226 4262 6180 9124 3658 804 9664 1356 4054 662 1677
30 2356 9402 9012 69 7668 1281 772 97 6248 2246 9444 1761 1217 6612 7101 9250 5261 8709 2761 5671 6524 3440 8972 1379 5657 8666 5224 3929 1261 2312
10 311 977 1835 2857 708 3782 3258 8952 5140 8253
11 4379 842 7406 5757 3885 8071 5138 3505 7996 5836 794
29 7399 7104 530 318 6173 46 990 9284 4249 9644 3323 7566 6861 6061 9584 8347 875 2403 125 4025 6792 9439 6194 6411 2730 5149 1495 1060 8453
19 7561 661 2566 2497 1175 92 1263 444 9822 3421 2907 6519 9085 90 9230 5478 5471 1207 4509
15 4494 4223 4154 4050 1102 8379 4958 115 8062 979 1561 724 1834 1905 9824
11 568 8967 712 6464 5095 7402 3819 9759 4474 914 1704
20 8950 8978 1221 2934 2952 9923 3364 546 1943 8864 5329 275 4329 1064 6959 790 8352 9396 9227 616
14 6541 7677 9874 7567 895 1319 884 2202 8197 4766 7989 1919 6355 4177
19 4948 7585 9631 3938 2000 7276 403 7988 1480 8645 8760 9934 1911 3593 3139 8692 4460 7741 3560
31 8703 7398 2147 8637 4957 986 8597 3669 4147 6800 130 6848 2400 1946 2990 5956 9183 8842 7272 7608 2334 765 4382 4917 848 1063 9855 7852 2083 2879 89
25 375 5818 6208 5156 8530 6196 9158 1768 7498 8486 8562 561 9880 8115 7419 3178 6516 2685 2249 5432 7977 6676 5688 8363 8503
31 6198 5654 1908 417 2651 559 7344 6902 9729 355 395 6290 4266 7077 1275 293 8729 2632 9862 71 7584 1099 3306 9521 7349 3441 5055 4683 5029 5865 3618
30 5860 4536 3865 9815 8791 6652 7162 3315 1004 163 6680 4330 9113 771 4430 3154 8181 5595 5010 6551 1798 5270 9261 4434 7199 9294 7087 6701 2172 3478
30 9888 9733 1489 3263 6842 9681 4786 1422 5123 8407 4014 6641 5380 4845 997 801 4804 1535 7720 8936 8389 9063 4422 3526 3715 3780 8488 7899 7182 8980
25 519 5971 5517 4285 1729 9497 3759 6098 8505 9810 5664 4489 7007 4487 5171 8885 8528 3822 8751 1462 7052 9840 6595 2227 4416
19 6663 7553 1208 2264 4805 2924 5548 6600 262 9203 2666 4534 3189 3642 669 6993 5588 8098 3984
11 1135 8345 1541 7590 3331 1395 8966 2363 21 9048 9489
14 7913 7097 2787 4485 3477 2802 4888 8851 8266 5527 5163 7065 3962 2430
21 7957 9595 6879 8998 5959 449 9480 3152 4055 8621 9074 8109 5789 1753 407 5736 2155 3787 8508 4432 8232
24 3444 3918 6951 4048 3750 3124 7532 397 6996 9547 9185 6483 7549 9522 2615 3864 7089 3084 5726 6577 9552 7244 5855 7115
17 3654 9231 7599 1622 2841 4800 9389 1780 8634 8944 2965 2219 3427 7039 6626 7784 3931
17 2061 1689 1313 1550 7464 7291 7591 393 2283 5580 5767 1514 221 7202 7758 1191 4158
14 4855 3527 1002 3685 9837 4470 8687 6043 894 1107 2918 9643 7439 9803
27 6115 7318 5189 3830 4376 3433 9897 8782 2766 3509 3173 4840 6833 5529 3413 1058 7294 4210 8215 14 7978 6661 6768 7261 9577 3860 2755
18 8758 5377 3193 1416 2966 1444 3764 291 1183 7388 783 9126 3612 4600 4542 8685 1801 4955
33 273 19 9495 8536 3616 7253 6346 9962 8984 7915 5099 9157 543 8540 7588 7285 7543 972 5542 647 2943 3087 7826 4589 265 6019 7660 6294 1312 5458 3255 6271 1052
26 7040 3311 2881 1386 4297 6648 2745 9156 2220 4939 816 9734 3150 6513 2892 5738 8006 2619 4427 8577 9756 6214 2683 7756 7937 7938
22 6916 5227 8715 2973 8219 6398 9710 1968 252 147 7078 8111 4465 1007 1141 2521 3010 9241 6364 5266 6465 7641
31 55 9166 4255 3605 7190 8854 4063 1942 4871 7080 6120 2722 1396 122 4060 2936 8567 5468 1707 631 9791 1153 9551 8313 1148 2608 8519 4553 9168 59 5545
25 1776 1251 6255 7683 9182 5050 2119 1864 9089 1193 6437 3031 4043 8264 4632 9665 6988 9663 6099 593 1581 3853 1928 8260 7496
29 1833 2357 6296 1640 9071 2207 7256 120 5764 9611 8502 1981 2051 7672 4942 7354 6709 8738 114 8931 4097 9040 1238 7530 7079 5561 6650 1951 9771
15 5086 8290 9890 98 7494 4986 1746 6283 294 7334 249 6908 6655 2960 6517
18 541 8932 5466 4863 9002 3818 952 9028 7207 9370 3278 3534 1314 214 5484 1140 1559 4203
23 4637 2538 2495 5602 4587 6512 8761 7275 5910 1643 1591 7630 3521 7047 4438 7892 1877 54 2361 7705 9024 1347 7951
21 8962 6658 3092 5816 4291 9138 8667 5567 8159 387 9983 4248 1688 5919 9509 2494 3423 6183 5813 6621 3388
32 5885 9347 7372 7580 3740 4764 9972 4477 3901 6379 4787 9881 9056 9421 8903 6137 7292 1262 9653 2772 63 9016 2336 8714 9468 4680 4226 5015 3641 3042 5248 3619
9 9679 4781 2957 9926 6340 9617 4027 1452 4023
35 7929 3160 212 3058 378 1902 2673 5951 4347 7457 6179 3799 1470 5026 2935 279 2956 2644 7653 8680 1486 4740 9716 2364 5528 7980 9197 4161 111 5964 5204 411 8541 1456 4392
30 3855 6740 9805 5957 5234 3366 7096 6279 9228 8023 6699 5470 3101 9709 9269 5575 1499 3771 5053 4146 2022 7821 6281 8648 1665 6598 5923 8497 5318 4286
15 3578 7113 4853 2541 8753 5410 5787 5002 7776 5051 7123 9061 8607 3279 6273
31 9449 2031 2167 4990 5187 6407 1583 3646 5070 4924 6821 9407 1767 9155 3359 1604 7345 1457 6561 8592 8744 5488 5119 4574 1161 648 8676 6998 504 901 1118
16 24 3197 3334 8991 7034 8367 1537 388 4301 1129 651 5446 1156 3975 2130 7348
32 3371 3176 5887 7934 2464 8030 9035 244 7829 1051 202 7935 7009 2116 8361 2611 5052 7327 4870 1017 5706 9955 9582 1249 3920 503 4151 2733 1683 8949 8622 3289
6 117 3990 4673 1500 8042 7110
15 4618 6529 965 4228 4029 3194 9232 5835 1891 5155 350 8014 8571 1087 7393
27 372 5615 4867 655 3840 6538 8037 2320 876 5514 8237 8963 133 4625 5810 9092 8067 2572 6660 2707 6278 2354 5056 4785 535 7138 1015
20 4307 5218 4467 9754 396 1686 928 9110 1786 3684 9919 6233 4488 4022 4303 8452 3337 5508 1202 3797
28 7401 5875 245 4080 266 9538 8642 6956 1211 3133 4498 365 8799 8627 7266 4608 693 5482 363 6947 3711 548 9540 8195 4968 9860 5390 316
29 6695 7864 3362 3181 4533 151 1901 5139 5195 974 5166 7819 4954 1382 2325 9618 9854 5800 4952 1043 1497 2827 1952 8372 4759 3712 6507 2606 7539
19 9523 2233 6804 7255 8192 3809 2721 3000 9413 4812 4095 8712 5775 8925 9432 1881 6153 8147 7133
29 2869 7704 7546 989 3036 6026 9546 6484 9054 5564 2248 8268 9321 7352 5326 1989 4212 7652 7897 2097 3037 2503 5144 2727 7973 526 86 3518 437
24 4150 1973 4366 7414 2513 3946 7627 2534 4550 2739 2749 6775 5786 971 4814 404 2980 7051 5912 3240 5753 7044 302 8654
10 1005 8792 9586 8766 6966 9761 9481 659 4528 3207
26 961 3147 5008 9981 3663 6134 6808 3163 8026 361 4442 4342 5873 1277 4229 4567 5831 3998 2450 2656 5874 8880 8337 391 5931 321
29 920 1024 4630 6069 3453 1215 4099 2505 3465 2374 6345 4566 4125 3496 8169 357 6167 2468 1932 996 9755 6309 4131 8060 8322 1795 5322 3113 6060
15 1978 2784 4848 3602 7434 4007 4593 1311 7697 9950 5219 3765 5134 1302 1159
21 4894 8149 2074 4666 2999 2585 3530 9082 9272 1061 1085 9414 7983 4676 2347 9909 6317 1552 5130 4156 6111
15 9550 3325 6971 6615 5374 1785 3071 6668 5754 8663 5778 2595 9960 1722 3172
10 222 3245 4910 9927 6644 2030 9196 3713 3346 4393
27 4058 2711 6360 6634 7994 2919 6597 379 2439 1071 4856 4985 7403 6829 3917 201 6077 6419 6017 9905 6010 5634 4771 1809 7151 4779 4846
14 9675 2123 3603 9951 5107 645 9177 3434 6197 10 2710 5625 6444 4471
29 9799 4475 1959 9702 1910 4555 2661 9357 7037 9441 3454 5314 433 5305 2345 9350 5747 4692 2222 3935 4102 8270 2822 4252 6546 937 5637 737 1137
27 1664 8020 409 6220 4409 531 5169 8981 2407 3851 3271 6452 7755 2228 2299 1629 2279 7385 8201 6303 4380 885 5826 5811 6514 8238 20
33 297 8323 2539 7226 4940 1355 9684 4356 9963 9632 9077 8871 8450 2804 6880 6983 9978 3397 8525 5220 1124 3336 3815 6732 9597 1749 6249 4598 9747 1488 4295 424 3825
29 583 6654 277 1830 507 4403 2076 4497 8631 6677 6883 5143 3470 1235 6505 9534 154 8107 4175 3407 2475 2282 8619 9674 1641 9749 4451 5273 8113
28 8840 1984 6741 718 9743 4585 2696 9846 9655 1779 3157 6751 9361 1592 5704 3053 3796 6436 5722 7723 7177 3136 8469 3890 6207 5884 1570 2840
27 4143 3409 8224 6567 5593 2343 4072 5133 1980 7178 1050 4770 5877 9661 9050 2728 5585 6697 5246 4721 7518 9280 188 1204 685 6494 758
29 4346 7293 6155 7602 9557 3879 3190 5622 2453 4584 586 1861 8976 467 6859 3406 1828 6299 8852 5078 1329 8032 3179 9206 9169 2114 1987 5077 4005
20 2316 8425 1030 8351 3906 6023 7535 1168 3230 2302 3001 8206 1812 8174 6358 6246 6492 1837 9831 7
19 2559 1113 8198 2518 2731 2900 5124 9346 1836 6568 3876 2873 4251 8778 1574 6351 6330 7954 707
12 7952 1635 128 9349 174 8235 534 6992 3484 4925 5127 3069
22 1888 9920 6327 164 4652 8273 2044 7216 3896 4834 6562 3501 1681 6292 356 6866 5175 9899 496 6117 6429 6143
31 1040 3773 4349 511 2323 6222 5452 7907 5101 4921 6235 754 9213 1065 909 7750 3212 8532 4560 8002 551 5796 925 3363 158 7559 7800 3533 2096 5547 5020
19 7119 8426 8157 7172 6703 8504 5088 8300 7604 485 6067 3225 6687 8707 107 7667 6087 3275 7450
28 734 315 8309 57 5503 8188 8860 106 7764 7830 1199 7132 5472 8126 8817 9170 7552 904 5109 7851 6100 8409 1484 5974 9058 7997 6016 7742
26 4214 1421 2440 656 1106 3169 4089 254 8830 4358 7502 5216 3372 7091 8516 8922 4500 6935 7083 1490 3942 756 6958 2421 5697 2169
20 3149 7287 9267 6718 4869 1557 6009 3729 3926 4926 954 7597 5048 7673 8455 6242 1128 9614 2862 5848
20 8204 1852 7000 8940 161 6213 1098 81 777 7920 8307 5999 4893 5180 4420 6080 5682 4013 6723 9916
30 157 190 5710 7867 6498 2927 6643 5579 1595 9264 6301 4515 9994 6312 8590 1516 7353 4754 3376 1853 347 324 5223 5696 1585 5935 2372 3335 2922 6467
18 6321 5284 3242 1618 6555 5633 3517 1974 9088 6506 3613 7969 5286 3322 9782 246 7623 8123
17 5598 8586 1564 119 9164 9610 9033 5457 6672 7075 389 7519 8611 8556 44 2170 8499
31 3988 1013 9845 290 9116 5287 5426 2388 2025 1008 3874 8974 6240 7626 4217 8166 6504 4597 9060 2215 7160 5038 9615 3769 6508 6318 4174 690 6051 8797 5150
34 8406 8736 6164 1260 2825 5628 1494 9505 8058 7843 5302 6806 3757 2614 1921 5582 7718 809 1996 7721 4738 7332 3630 3598 145 5429 416 1234 6088 4905 1841 6266 1732 5665
31 9283 4260 3779 956 6903 7663 5837 9151 6907 6864 7727 4590 4290 6387 256 1727 703 7313 6497 2342 1188 8625 53 2369 4681 6553 6195 8923 5812 9736 5723
5 7862 9636 9483 1744 4321
16 6961 4546 8447 3816 3936 8598 8457 6948 6011 436 140 1398 3545 3690 9915 8847
25 4842 4885 5006 3200 8093 2551 6132 7315 5995 3211 9240 6165 282 6778 6995 5136 5496 9697 4183 4182 8095 9484 2258 9865 2814
26 3103 8024 3354 4558 3220 2217 2160 8970 6094 6999 1392 582 3699 9378 5360 1493 471 1554 6372 8985 3728 1849 4230 7537 2353 1699
7 3457 5948 3572 211 1817 6285 144
28 9216 1734 8207 1252 761 7682 4331 3531 9248 6156 5998 9298 3606 2125 9718 2190 7797 9572 2549 5336 7426 8456 8341 1586 8226 1731 7527 6433
19 622 4455 3833 5917 5263 3958 3482 9075 8610 1716 9192 5556 9917 7321 7462 985 257 558 2620
25 5406 8458 6003 7085 2577 422 3513 5087 2875 8638 5289 4167 7689 6779 6722 4669 5872 9194 3379 4521 1463 7542 8422 6063 9476
30 3693 5510 2649 7337 7211 4541 8804 993 9539 7576 3691 1875 384 5739 9017 7531 9835 5085 1964 1608 4726 3595 2188 7374 4402 2847 2349 479 5312 3631
7 445 8435 9806 135 2967 6601 5982
11 2986 8459 1054 4703 5477 832 292 6422 1062 9388 5903
29 29 3138 8440 6749 7883 3732 1613 3839 4776 4677 1433 3752 405 4747 276 3878 4038 3045 8286 1648 1361 1694 7947 7669 8282 5591 1147 1454 9999
29 3471 4537 8784 2305 4245 9410 9466 691 7715 6178 1282 4777 3999 319 4809 1296 537 8325 6531 3548 7526 8515 2301 6302 9290 4077 4568 9977 5536
18 8179 6877 5920 3022 7246 6133 2543 2969 9496 6905 6515 4337 869 7302 5900 7606 5456 2210
29 3555 864 5535 780 6438 3493 704 7633 8028 9160 4701 6891 9428 999 7497 7031 1782 9802 3744 2723 4463 1133 3460 5806 4752 4728 8612 2618 8870
13 1866 945 5983 932 4118 4492 3703 1720 3762 7054 9786 4922 9215
19 580 6457 9401 2904 856 7208 7684 7071 3217 6050 5030 5197 1526 9204 664 5749 831 9391 8154
16 3281 7575 6274 7921 4849 1171 4459 2139 8140 6759 6448 108 7836 6616 5460 1134
5 6456 5237 6536 4657 4887
24 2020 8489 3910 4482 982 4913 6062 1872 4824 255 6622 7130 1328 3437 7925 3979 3312 8704 7540 9266 879 3903 7586 840
8 7640 3276 3024 8410 476 5653 1478 562
18 2576 8557 8786 4807 2686 9537 9165 9195 4045 883 2989 4690 2319 7972 8332 4886 5661 3745
18 2912 1438 873 6066 3213 7474 261 8669 235 5980 9372 9699 602 5431 4670 9876 4904 8119
11 1353 8587 200 5699 5620 4205 5695 9062 6962 6190 3559
21 8184 3119 1496 7732 7282 4221 2397 4235 7635 1368 8427 7107 6130 8997 1131 8825 6878 8398 2046 948 2007
30 4788 2838 3317 5732 8995 7912 4503 3904 193 6885 599 1907 484 5023 2861 7392 3130 7619 6666 9895 2672 8859 4672 4620 4408 9296 488 702 8122 8543
27 6228 3384 5748 9757 4658 6480 578 8827 8815 714 3231 1466 5992 6847 9594 6320 7970 5333 2689 3889 6136 2704 401 7268 1576 3313 2658
29 4495 7180 5369 448 9511 1046 1331 4756 2477 2122 6681 2561 7788 7651 7871 7012 2085 2785 3582 198 9338 2080 49 642 3987 5311 296 5362 5758
9 1269 3424 8588 8614 1529 9732 6104 2933 1545
18 5424 3294 4112 6409 2442 823 127 3952 7187 1198 2601 7967 7998 1283 1073 8076 5975 8722
21 5341 9463 5025 5182 7382 6182 1886 6589 461 7569 7931 1598 2479 1871 9424 7363 3141 3395 9740 7343 4662
24 1735 2026 3541 5663 1627 3721 3102 4130 5014 3731 6223 5211 9460 9442 1818 6325 8809 850 2855 4367 9339 495 8606 3204
8 957 8376 9944 9382 2245 2660 3848 6400
34 4586 5744 2118 4064 3666 9100 3784 7456 9440 1391 2568 9724 5569 8551 639 1031 4682 6858 1783 8291 4276 9083 8812 3960 5641 9961 287 9390 5269 9332 6685 1115 1341 2664
28 3025 7993 4836 7882 1509 9273 5962 1831 4651 2057 7062 7006 9080 6810 7095 8623 4389 5506 8180 8205 2628 2259 9499 5057 6007 1403 2211 1645
28 5304 1838 2975 1233 3783 2178 3970 9101 9222 1016 8721 8470 8916 3016 8366 4789 470 2218 6267 2876 269 8144 6837 5776 8114 8701 3671 805
22 7141 1384 7638 7876 7698 7438 1023 1623 6443 4110 9727 9257 9648 2307 1848 4531 5555 443 1653 8710 7219 2185
27 3564 7711 7648 4088 6356 3636 2930 3524 2810 508 137 9826 2931 2580 3776 1388 9924 2029 2427 3419 4859 6976 7437 2564 1602 8120 3588
30 1528 1194 5120 267 9171 9375 8652 2108 5009 4302 959 9433 7021 7288 3011 3241 7734 3908 7328 8496 8354 9295 4599 5762 3304 7228 906 4338 3562 3664
26 6952 8189 3426 5212 2982 9202 7342 7778 4937 5864 4096 6488 1743 2996 3483 3551 1578 7529 7480 3272 2594 1301 9953 1636 8934 4649
21 8342 7319 2780 9625 2409 942 7730 5116 6243 7872 9800 7594 9592 6138 836 5925 1965 2274 450 5945 5886
27 3030 8277 4502 6316 3542 8112 3949 7387 4552 6727 1748 8150 3174 67 6083 8933 6431 594 5081 7336 4972 4390 9764 6390 1210 2623 3107
31 5161 5990 7248 6710 2250 8937 3775 930 8506 4491 2048 8293 1308 9908 4881 5734 8234 5733 1401 4946 1673 345 3464 1185 3002 5846 2569 6482 421 5978 1569
30 5716 3049 4935 6125 3842 1647 7479 1436 969 2906 4634 3673 6451 6064 924 6366 7024 6042 1649 8068 1298 3365 5215 5546 2830 2946 7136 1400 6124 7093
24 5649 3475 2171 3905 7301 3345 9482 9225 5080 4335 3004 4660 3318 1026 9032 2197 6310 6986 5659 4901 5876 3218 770 5647
23 3743 6849 7631 439 7884 2751 9843 4565 9318 1820 7238 7981 304 312 3244 274 2925 299 7350 9307 7257 6559 5198
32 3692 9685 6053 5955 1684 5135 9842 4664 2260 2035 5001 5630 6963 5411 7090 7620 2768 2004 4026 4464 3485 2820 4577 1483 1279 7845 3628 1895 8404 8552 7739 8921
10 6039 7926 8228 2808 2438 683 9408 7520 2740 5059
7 2008 9974 7779 6319 1322 2866 722
10 5245 3202 4811 9115 3871 4185 1055 7154 9069 6934
32 6424 8629 8328 7243 7380 225 1553 9928 9809 2885 1692 8288 7341 6838 9247 3893 2762 2068 9212 6862 4529 8954 2328 5765 5396 604 5869 6702 7859 6576 9827 5232
28 8559 9820 892 8434 9254 4704 7856 8737 8585 2164 7145 2645 819 793 4730 5851 6145 6906 4030 8061 7369 936 522 2815 4180 5293 1359 2276
21 61 1803 2654 8051 408 6378 4343 4357 2267 4912 3730 8769 80 619 7771 9076 9193 4813 5047 2329 2138
12 8102 166 5829 4782 9130 6762 8990 949 8316 1166 9479 6527
9 7229 7346 3986 1914 2473 6679 4916 592 3088
27 1879 8848 8803 1508 8187 2482 4344 7150 6297 7754 2437 7507 2501 6176 6758 7377 9989 9047 1933 4612 8183 8558 2886 3238 5011 4133 2410
30 8728 6884 5507 9549 5662 5724 2377 3657 2547 1799 4642 2901 3862 4219 5464 9658 8390 6055 2012 8757 2932 7470 1806 8734 2091 1390 2337 8087 9834 1082
19 5381 4693 2657 4826 7686 7386 4966 9234 886 138 6868 7610 1876 3824 5616 1366 4909 1136 587
13 8578 2480 9341 1985 4588 5141 4564 1056 630 3064 4760 6944 8321
28 268 9851 3557 7152 853 2706 6657 3499 6140 3210 5247 2938 3079 1982 1789 3187 7279 6841 3882 7416 7484 6881 4079 5179 3836 3110 4047 2508
17 3008 9768 4720 4410 9064 3802 91 2602 5526 1930 4472 2417 6406 3392 7782 8402 3286
20 7877 8262 3976 7465 7277 2781 6639 6784 5603 6930 7573 7045 5386 4496 9358 4032 7798 4890 7032 3827
8 7799 2788 1218 3614 2486 5272 6889 1594
25 8520 5060 9543 8816 1863 233 3635 5986 6588 1616 1953 4155 7708 7832 2003 5750 3254 1696 2823 9781 9448 5988 131 5111 557
20 8271 3608 9072 399 2884 1417 3660 2894 3503 5013 8781 3355 2617 2251 2836 9371 6112 7943 4354 5538
27 585 4208 4661 7236 5668 9457 3117 2675 3228 8229 5635 7791 5191 3449 3689 7280 2485 2226 2860 7427 51 7241 3274 9369 9635 455 1300
12 7911 4648 1267 9654 9477 660 9889 9265 843 9553 4449 2758
19 741 3540 2782 4202 3051 1146 25 7063 3059 7593 7027 3884 5685 911 8053 4193 3637 9281 3880
17 6607 2422 3017 9613 1381 1706 3996 855 4808 5339 7955 2287 1290 1958 2252 8947 1691
19 6649 3148 2230 4246 5719 1245 1352 156 6659 2156 3476 3556 6713 4009 1471 6262 2532 6175 4941
27 6160 7082 3068 6413 3537 2852 3122 4944 1179 5323 1791 5373 9542 9867 9348 9704 7072 8668 752 784 441 3558 5842 2182 4962 2238 3633
16 4882 394 3067 3073 2036 9135 8555 1182 8220 8953 2234 1979 4821 5268 1371 8824
27 2941 5358 9316 8338 3972 8194 380 175 5792 9741 6253 8826 7949 4121 1551 104 676 4289 4166 9258 4275 6606 9773 6401 2908 1938 9770
16 4687 3196 457 3966 6076 1721 4798 1568 5462 7793 37 1402 1702 5479 905 8047
31 2774 9191 7249 9104 6454 4645 9647 4328 1710 3314 215 7987 3847 9163 3573 510 1824 6675 6528 8050 6229 6812 3131 1044 440 1074 5797 8898 2322 170 247
15 4829 5815 4119 2368 3086 5190 5438 6693 9486 1822 7603 4192 7264 4501 4374
27 113 5359 8832 4830 2741 7364 1443 4398 2558 5879 1589 8193 6915 3997 5389 9498 7142 694 6801 9471 7706 6005 1225 667 2905 8490 7825
19 8395 7451 6192 2399 6856 9419 6272 2187 1246 2186 5677 6828 191 4983 3837 1479 6994 579 8196
18 9207 7186 2335 8464 7174 751 8523 374 5160 4031 7794 9031 1774 680 3709 5334 1150 8012
14 3239 8227 1582 2909 7073 6049 6690 828 8641 9971 5046 9354 632 1288
13 9411 2738 4575 6265 782 2060 8353 8303 8572 706 4741 1935 9993
4 4644 3539 4476 2563
22 2944 6455 1223 2856 3807 4595 9159 4227 711 1197 2958 890 9219 7148 2859 1042 695 2994 528 1941 2099 5825
17 1794 2436 3403 4404 2041 671 4709 9044 17 6289 1678 9739 899 3132 8948 4614 8684
19 6724 3029 284 9735 7692 8116 6698 2395 4623 3621 7383 3955 7753 486 7170 5960 4753 26 5599
24 9670 2536 9965 9105 4938 3232 5557 7176 7316 1781 9783 6116 9239 889 4322 6918 4943 3399 8777 6108 322 6477 4554 5652
26 8420 1860 332 9657 2799 1324 6719 1862 1101 462 2972 1639 4559 2142 6142 4407 7265 7233 9966 8913 927 6354 4723 653 7215 4042
17 3321 1411 8905 3186 7022 5916 123 1760 1089 5233 6592 7803 5459 6084 336 845 1829
32 219 8302 442 7554 1430 3215 7043 2702 6056 3007 3070 3295 6939 2154 5904 9470 6846 4619 6813 2499 8393 6867 426 8145 7644 810 9010 6461 705 3719 6093 7223
21 9901 9544 4109 4207 9042 5642 9645 2128 1220 987 9000 3085 670 1840 2024 6105 9583 5705 5950 2255 2445
28 6044 5743 7373 849 6927 7548 177 4792 4879 2054 7508 3811 3925 3293 5083 5061 9456 1666 2350 6937 5989 3716 4737 1936 31 9097 7111 2271
17 9121 9021 1548 8961 4581 2705 281 2650 8242 7473 1990 1035 3792 9608 3723 8131 4271
10 9581 627 3368 8146 4137 6638 9737 5260 8662 9377
15 9020 7810 6068 168 1723 5656 2653 2753 6587 8686 1429 76 454 8284 7061
25 9291 7471 2915 1518 8989 8546 8038 2174 8691 5785 2205 7781 8725 4033 3342 7195 5807 2379 6468 4797 148 8959 6840 7163 8723
12 2176 3774 5570 2844 1730 1205 2318 2998 2298 8907 797 8036
19 6767 1784 8203 4299 172 9949 4017 7808 6460 342 2835 9785 3992 5908 50 8177 7598 2988 2528
11 8675 7948 1 2554 731 195 5454 79 1086 868 3021
26 1993 1630 9666 9830 3114 9037 4607 7134 3429 5608 4426 8911 9462 8646 6820 3115 3452 2676 5007 5363 5178 605 598 7722 2463 7814
20 2278 666 7534 2790 6925 2882 5619 8446 5320 7898 4419 3198 995 451 2113 2158 6853 263 2659 1646
7 1563 3468 8324 596 1369 4327 4796
27 9979 3758 5516 1777 8110 1565 1644 9288 8956 5933 3570 8460 732 1566 5168 964 3353 5110 2872 5151 7885 9642 5434 7017 5348 1254 4018
25 8509 3951 9602 2896 2470 9429 2404 674 2680 3751 6830 6897 8258 1485 8495 8045 6797 1740 9145 4444 2195 2474 4181 8430 4987
21 1815 4583 1869 2783 3026 241 7239 8244 8481 5610 1747 8039 4012 3074 3927 5828 7295 8165 3324 3134 3857
33 6633 8449 1121 9640 8772 376 7263 7643 4884 4866 1264 7866 3182 7389 4279 4549 4919 7944 7974 5827 1657 9142 9946 6964 3695 2094 410 2902 3898 6177 5944 9172 7783
26 2327 8739 2690 1580 3502 617 6247 2290 9073 8339 2373 7796 5523 8009 6678 1119 5103 9932 3142 6014 7959 6396 8658 1894 432 2152
17 610 2424 6159 6836 5892 354 8191 1143 8478 9034 3634 1611 5392 8837 5949 2593 8070
16 2507 7129 5282 2112 9527 6280 9570 3746 715 4236 1960 8547 4899 4138 2502 7290
16 4098 739 5698 565 1963 5453 7448 2362 4838 9519 4998 5202 6158 8908 4339 7568
23 4066 2748 493 9769 9620 4854 7816 1476 3798 5301 7305 2498 5031 6540 9933 851 1164 2496 1769 124 6936 2005 1022
27 489 6199 3396 9705 6575 3778 9070 5847 6416 9508 536 5243 4188 6205 7853 3707 2903 5850 8392 2636 7774 5898 9760 6365 438 8770 8789
28 5902 7612 2642 7557 3270 8609 5952 7729 8820 5040 1464 5442 8033 9554 4950 1533 8003 9244 2868 9029 9455 5946 1969 2747 2764 8044 2529 2770
9 7468 3246 4994 9301 4691 955 6827 8276 2625
31 2429 3236 874 4920 7787 5428 5766 775 9812 1259 5105 6674 4582 232 863 5292 4423 803 6187 9331 8643 1765 1380 2339 4993 8132 5897 3718 5676 4268 8535
29 4984 3104 3866 2338 7492 4862 7068 4244 2206 5770 6146 103 6578 1572 9422 5022 8117 8241 7517 2647 4923 4222 5399 5928 763 8717 3644 8374 7833
19 2828 3575 1697 7870 9345 6584 7135 2291 7971 6106 1638 8063 3 2396 333 9967 1596 4076 5573
32 6418 8055 2626 6128 6742 6305 1487 8695 1859 6121 9701 9823 4456 8007 5032 5670 8283 1053 8829 217 1567 591 8531 1434 6259 6720 8894 7269 6148 8581 8178 2100
24 3667 6150 3991 2992 6446 5799 1745 5914 6548 3300 2552 7842 2978 9181 2953 242 860 1083 1728 2968 5977 5439 9454 2691
10 4056 3546 9306 9633 2212 6980 9438 917 30 9530
28 9698 2296 6168 3717 3594 908 8160 4278 3714 9006 862 8289 9902 1926 748 3823 8841 3472 9356 7317 3683 555 6788 2193 8156 7356 9317 3643
27 6965 8073 9487 9289 7847 5170 178 6579 7805 8945 808 9574 1756 5880 8988 6773 7331 1265 9275 3670 3519 5325 2257 5404 4823 1350 3380
13 3410 567 206 6711 5240 8955 1232 7745 9975 7629 8373 9436 7206
30 6361 8029 481 3445 6985 6809 300 2556 8798 7296 3339 1468 8593 4947 3473 4454 4360 1885 7449 5938 2655 3941 8305 2575 3243 5418 3702 7146 1378 4545
11 2418 7671 8810 1289 746 3978 9323 9875 5718 5961 392
8 6269 9052 7379 8973 560 3393 7812 2053
10 6694 6851 6245 5158 6526 4034 1523 23 1442 8330
24 5222 8713 5996 1206 5679 5913 8431 7865 52 2433 8764 3736 2454 888 7486 3914 973 1091 4731 4315 9387 3662 2786 3347
28 2531 1323 2455 8521 1792 4450 425 5076 7873 9980 2874 7525 7384 9270 2796 7570 940 5997 3296 8364 3995 8861 4265 8877 8939 6931 383 2843
17 5881 8783 7347 3292 5532 4092 8857 4073 5153 953 2889 8451 4769 3081 2145 1615 2225
21 3708 4965 4714 1531 2684 4074 7175 6609 6038 6728 6611 9603 5774 7056 3563 5926 3349 9568 818 4790 2586
37 4873 817 5295 2382 4914 1294 5238 5844 1752 8148 1612 2042 776 4378 4535 6469 1656 6802 1851 5963 2699 5200 8041 4081 2087 981 9676 1971 4837 8919 9622 6968 9589 910 7869 9990 5731
16 1228 3849 41 1628 9738 7901 1453 4617 1700 6746 3710 3425 8661 1320 6129 3491
13 2166 5746 2718 6154 5927 2490 6731 3280 6664 623 226 8594 4716
31 9187 3640 8574 6942 5511 4659 6896 2355 7445 4775 550 2086 2713 7547 4264 4312 5675 5419 870 1816 5840 2517 460 3151 844 8411 7057 7950 5939 8001 3514
5 8564 5721 615 4629 2591
29 554 7064 4624 2216 1222 3082 8595 4300 7769 3507 6462 4543 1709 5984 1814 5947 5905 3091 5924 270 1621 7412 182 9365 2638 1120 9711 1652 1931
23 6900 5727 9691 47 2235 5495 2831 8719 628 7893 2708 781 132 1103 110 7023 9531 8802 185 5707 2806 1599 1425
11 1332 8484 5500 9045 7662 2984 8968 9750 8636 5896 1562
11 7227 8394 4517 5544 1878 9794 1726 1909 3626 2492 9488
27 6780 7140 7314 6430 1365 7777 2394 8560 5702 5684 2910 3135 7046 4906 3980 8360 4579 1736 2759 574 2165 5623 3012 431 1887 4383 5973
5 3655 6377 8231 8969 6960
15 9626 2603 2293 8835 8856 753 7665 3227 1459 8605 4052 3488 1408 4695 325
18 8698 1414 1363 6550 8795 4171 7411 5994 3843 4117 1603 7809 8891 1542 5024 8336 8838 2816
16 5343 7357 9144 9485 5012 1884 4713 2075 516 5700 9167 6684 3137 6982 6714 5968
20 8086 2426 5541 6563 607 3940 6744 8819 2365 4997 4751 1157 7767 4996 3094 3456 4484 1579 4865 4908
20 2324 6747 4196 3411 6503 475 5409 4872 9912 7339 310 2131 5251 16 3184 5644 5162 8008 8454 8964
7 3697 1609 9011 9562 9179 4639 1880
24 6913 4352 6630 8079 3829 3547 4561 9136 7106 9541 7966 738 3401 6144 2478 1975 2824 8626 139 1426 251 8865 1939 7049
29 3168 3208 209 9804 6034 9576 2011 189 9624 1424 740 4591 3277 4168 5512 7461 4505 5594 3214 9173 9094 4458 1334 1440 6673 2637 3611 9146 9311
29 6843 1170 4200 3050 3680 7759 8665 1937 4433 4802 5340 1029 9941 4992 9748 5128 2389 9201 829 9271 7100 3820 8683 9669 4817 4189 4729 5125 4292
30 7188 9046 3989 199 6392 6969 646 7010 7513 5074 5201 6059 9103 1383 7939 7735 815 7500 5863 9423 3309 9587 6394 7242 7405 4240 3665 7906 9970 5937
18 6794 4437 7975 1240 3420 8236 6313 9186 1236 6065 5098 7395 573 4261 3523 1698 8267 3586
14 4877 2106 6410 6058 9190 6244 5437 8500 7422 4019 612 7909 3749 8308
15 6139 7108 2110 7562 7081 6238 2088 9243 6586 1925 6955 298 1327 4296 4425
19 1407 5387 9412 1326 5627 6216 5853 1846 3675 4247 2023 15 3722 2805 285 5607 5589 8875 7482
3 477 1192 7678
20 696 9985 854 9180 4643 2817 6805 3622 4828 5907 9694 5768 5210 8741 8025 5444 3791 9277 3378 6368
24 8213 6912 8493 9132 9143 7806 2535 7857 3299 5357 3982 4263 4572 7838 7917 6835 6046 8893 4570 9898 6250 70 3522 7986
15 8787 2714 1524 4705 3112 6078 7595 9019 1274 6854 4573 8139 9451 2049 5244
27 7709 1874 2209 3370 6357 8688 6163 6932 4457 6824 3828 7124 9877 6628 3195 7765 8839 9580 9005 743 8479 2604 5489 3687 1473 4883 9507
5 5858 1778 7483 7147 3028
15 3647 9579 4898 4504 4067 8501 6489 2987 4165 5407 7300 8375 5068 5408 6667
18 1447 7891 3066 9634 2077 3435 2979 3785 8018 6566 8125 1922 576 900 2310 1258 4041 8279
17 8630 2297 6910 8918 912 2546 4971 4963 6171 3844 5745 1772 4580 9600 6817 3185 1510
